<?xml version="1.0" encoding="UTF-8"?>
<svg width="190px" height="32px" viewBox="0 0 190 32" version="1.1" xmlns="http://www.w3.org/2000/svg" xmlns:xlink="http://www.w3.org/1999/xlink">
    <title>SF-smartfrenLogo</title>
    <g id="Page-1" stroke="none" stroke-width="1" fill="none" fill-rule="evenodd">
        <g id="Buttons" transform="translate(-1027.000000, -1049.000000)" fill-rule="nonzero">
            <g id="SF-smartfrenLogo" transform="translate(1027.000000, 1049.000000)">
                <path d="M8.36512,30.9819927 C4.45712,30.9819927 2.05184,30.3964315 0.69912,29.3719952 C-0.40252,28.5425745 -0.15264,26.4448097 1.1002,24.3470255 C3.2464979,25.5446109 5.68911045,26.1515811 8.16485,26.1025358 C10.36928,26.1025358 11.82238,25.7125624 11.82238,24.2975612 C11.82238,22.8336776 10.51992,22.54144 7.41289,21.9559273 C3.40507,21.1747976 0.49889,19.5159176 0.49889,15.320417 C0.49889,11.2215079 4.10622,8.58712242 9.61794,8.58712242 C12.2780267,8.55096654 14.9186125,9.03210325 17.38373,10.0021139 C16.93303,13.4665406 16.03106,14.101023 14.92884,14.101023 C13.42612,14.101023 12.22348,13.3204848 9.46791,13.3204848 C7.36328,13.3204848 6.21085,13.9054642 6.21085,15.1254594 C6.21085,16.589343 7.71416,16.7843297 9.8684,17.1743224 C14.82899,18.1015467 17.68497,19.8576388 17.68497,24.0537212 C17.68497,27.8103273 15.3299,30.9819927 8.3651,30.9819927 M34.219,30.6403297 L34.219,16.7843297 C34.219,14.149343 32.46523,13.3204848 30.461,13.3204848 C28.35639,13.3204848 26.50279,14.149343 26.50279,16.7843297 L26.50279,30.6403297 L20.64079,30.6403297 L20.64079,17.0765382 C20.64079,10.1977115 25.60138,8.58715152 29.60921,8.58715152 C33.56801,8.58715152 35.82208,9.6604703 37.17476,11.5638206 C38.72829,9.6604703 40.7325,8.58715152 44.6907,8.58715152 C48.69912,8.58715152 53.75954,10.1977115 53.75954,17.0765382 L53.75954,30.5425455 C52.9356684,30.7090603 52.0960068,30.7909988 51.25444,30.7871452 C48.5485,30.7871452 47.79714,30.0547879 47.79714,28.7375709 L47.79714,16.78432 C47.79714,14.1010133 45.99314,13.3204752 44.03914,13.3204752 C41.98531,13.3204752 40.08093,14.1493333 40.08093,16.78432 L40.08093,30.64032 L34.219,30.6403297 Z M66.68618,31.030303 C59.92218,31.030303 56.91618,28.9814497 56.91618,24.2492703 C56.91618,19.4193164 60.924,17.6131976 66.88642,17.6131976 C68.841,17.6131976 69.74242,17.6131976 70.69458,17.6620897 L70.69458,16.78432 C70.69458,14.3443297 68.43992,13.4176776 66.53613,13.4176776 C64.6678505,13.4592789 62.8475793,13.9996396 61.27546,14.9793455 C60.07224,15.467103 58.61972,15.2232242 57.5677,11.612703 C59.57133,9.90436848 62.87801,8.58715152 67.28748,8.58715152 C72.59897,8.58715152 76.40655,11.3682424 76.40655,16.7348558 L76.40655,30.3964315 C73.1936204,30.8988167 69.9395475,31.1110168 66.68618,31.030303 M67.23788,21.5653915 C63.22946,21.5653915 62.62814,22.6387103 62.62814,24.1514958 C62.62814,25.6147685 63.47991,26.5425939 67.08726,26.5425939 C68.2914895,26.5537761 69.4955171,26.5050073 70.69459,26.39648 L70.69459,21.6142836 C70.04365,21.5653915 68.64018,21.5653915 67.23788,21.5653915 M80.21472,17.3692994 C80.21472,10.6854788 84.473,8.83104 89.03312,8.83104 C90.1039972,8.81409977 91.1749036,8.86309038 92.23938,8.97771636 C92.28959,12.2954667 91.88851,13.7104679 90.53584,13.7104679 L89.03312,13.7104679 C86.97812,13.7104679 86.07612,14.8326788 86.07612,17.6620897 L86.07612,30.6403297 L80.21472,30.6403297 L80.21472,17.3692994 Z M105.96816,27.1275733 C105.96816,29.5181188 105.86716,30.9330909 101.20838,30.9330909 C97.09956,30.9330909 94.29322,29.3719952 94.29322,23.809823 L94.29322,6.78217697 C94.29322,4.83051636 96.14795,4.19607273 100.15579,3.36664242 L100.15579,8.97771636 L106.1182,8.97771636 C106.21861,13.1737988 105.61729,13.6126642 104.1642,13.6126642 L100.15578,13.6126642 L100.15578,23.0292752 C100.15578,25.2731539 100.85693,26.1025648 103.01178,26.1520291 C103.984094,26.1612335 104.955642,26.0960357 105.91738,25.9570424 C105.957612,26.3459405 105.974571,26.7367726 105.96817,27.1275733 M109.02438,8.14826667 C109.32505,2.04942545 113.83437,-1.81278603e-16 118.44351,-1.81278603e-16 C119.799376,-0.0232293245 121.155317,0.042104737 122.50213,0.195558788 C122.55234,3.41553455 122.15186,4.87940848 120.79858,4.87940848 L118.694,4.87940848 C116.13926,4.87940848 114.88642,5.95217455 114.88642,8.73381818 L114.88642,8.97771636 L120.94866,8.97771636 C121.2499,13.2226909 120.44834,13.6126642 118.94504,13.6126642 L114.88642,13.6126642 L114.88642,30.6403297 L109.02438,30.6403297 L109.02438,8.14826667 Z M122.40231,17.3692994 C122.40231,10.6854788 126.91162,8.83104 131.67197,8.83104 C132.776014,8.81736246 133.879937,8.86633827 134.97808,8.97771636 C135.02829,12.2954667 134.6278,13.7104679 133.27508,13.7104679 L131.672,13.7104679 C129.36657,13.7104679 128.26434,14.8815709 128.26434,17.6620897 L128.26434,30.6403297 L122.40231,30.6403297 L122.40231,17.3692994 Z M146.65244,31.030303 C139.58782,31.030303 135.27873,26.980897 135.27873,19.9553939 C135.27873,12.7832242 140.08873,8.58714182 145.95073,8.58714182 C153.86773,8.58714182 155.87136,14.0026473 155.87136,19.7598352 C155.87136,20.2970473 155.87136,20.8826182 155.82172,21.4675976 L141.19152,21.4675976 C141.29136,24.1997964 143.49581,26.1520194 147.15335,26.1520194 C149.568023,26.2606701 151.928547,25.4361254 153.71709,23.8592679 C154.446122,24.6902559 154.915395,25.7057694 155.06976,26.786463 C155.068008,27.5940799 154.70198,28.360531 154.06795,28.8842182 C152.76548,30.0547879 150.31,31.030303 146.65244,31.030303 M141.19152,17.5159855 L150.40982,17.5159855 C150.31,15.3204461 149.40801,13.124897 145.95071,13.124897 C144.714852,13.0802147 143.512718,13.5211711 142.616765,14.3478267 C141.720811,15.1744822 141.206905,16.3168374 141.19152,17.5159855 M178.36831,30.5425455 C177.544436,30.7090856 176.704765,30.7910244 175.86319,30.787147 C173.15783,30.787147 172.40589,30.0547879 172.40589,28.7375709 L172.40589,16.78432 C172.40589,14.1010133 170.55231,13.3204752 168.5481,13.3204752 C166.54447,13.3204752 164.68972,14.1493333 164.68972,16.78432 L164.68972,30.64032 L158.82772,30.64032 L158.82772,17.0765382 C158.82772,10.48992 163.78772,8.58715152 168.54809,8.58715152 C173.30785,8.58715152 178.36831,10.1977115 178.36831,17.0765382 L178.36831,30.5425455 Z" id="Shape" fill="#000000"></path>
                <rect id="Rectangle" fill="#EE2060" x="182.06433" y="22.9901576" width="7.93567" height="7.65027879"></rect>
            </g>
        </g>
    </g>
</svg>